decorder/simulation/qsim/decoder.msim.vcd
$comment
	File created using the following command:
		vcd file decoder.msim.vcd -direction
$end
$date
	Thu Jun 07 20:22:37 2018
$end
$version
	ModelSim Version 10.5b
$end
$timescale
	1ps
$end

$scope module Block1_vlg_vec_tst $end
$var reg 1 ! clkin $end
$var reg 1 " clr $end
$var wire 1 # cn $end
$var wire 1 $ high_seg [7] $end
$var wire 1 % high_seg [6] $end
$var wire 1 & high_seg [5] $end
$var wire 1 ' high_seg [4] $end
$var wire 1 ( high_seg [3] $end
$var wire 1 ) high_seg [2] $end
$var wire 1 * high_seg [1] $end
$var wire 1 + high_seg [0] $end
$var wire 1 , low_seg [7] $end
$var wire 1 - low_seg [6] $end
$var wire 1 . low_seg [5] $end
$var wire 1 / low_seg [4] $end
$var wire 1 0 low_seg [3] $end
$var wire 1 1 low_seg [2] $end
$var wire 1 2 low_seg [1] $end
$var wire 1 3 low_seg [0] $end

$scope module i1 $end
$var wire 1 4 gnd $end
$var wire 1 5 vcc $end
$var wire 1 6 unknown $end
$var tri1 1 7 devclrn $end
$var tri1 1 8 devpor $end
$var tri1 1 9 devoe $end
$var wire 1 : cn~output_o $end
$var wire 1 ; high_seg[7]~output_o $end
$var wire 1 < high_seg[6]~output_o $end
$var wire 1 = high_seg[5]~output_o $end
$var wire 1 > high_seg[4]~output_o $end
$var wire 1 ? high_seg[3]~output_o $end
$var wire 1 @ high_seg[2]~output_o $end
$var wire 1 A high_seg[1]~output_o $end
$var wire 1 B high_seg[0]~output_o $end
$var wire 1 C low_seg[7]~output_o $end
$var wire 1 D low_seg[6]~output_o $end
$var wire 1 E low_seg[5]~output_o $end
$var wire 1 F low_seg[4]~output_o $end
$var wire 1 G low_seg[3]~output_o $end
$var wire 1 H low_seg[2]~output_o $end
$var wire 1 I low_seg[1]~output_o $end
$var wire 1 J low_seg[0]~output_o $end
$var wire 1 K clkin~input_o $end
$var wire 1 L clkin~inputclkctrl_outclk $end
$var wire 1 M inst5|Add0~0_combout $end
$var wire 1 N inst5|Equal0~6_combout $end
$var wire 1 O inst5|Equal0~5_combout $end
$var wire 1 P inst5|Equal0~7_combout $end
$var wire 1 Q inst5|count~1_combout $end
$var wire 1 R inst5|Add0~1 $end
$var wire 1 S inst5|Add0~2_combout $end
$var wire 1 T inst5|Equal0~0_combout $end
$var wire 1 U inst5|Equal0~1_combout $end
$var wire 1 V inst5|Equal0~2_combout $end
$var wire 1 W inst5|Equal0~3_combout $end
$var wire 1 X inst5|Equal0~4_combout $end
$var wire 1 Y inst5|Add0~3 $end
$var wire 1 Z inst5|Add0~4_combout $end
$var wire 1 [ inst5|count~0_combout $end
$var wire 1 \ inst5|Add0~5 $end
$var wire 1 ] inst5|Add0~6_combout $end
$var wire 1 ^ inst5|Add0~7 $end
$var wire 1 _ inst5|Add0~8_combout $end
$var wire 1 ` inst5|Add0~9 $end
$var wire 1 a inst5|Add0~10_combout $end
$var wire 1 b inst5|Add0~11 $end
$var wire 1 c inst5|Add0~12_combout $end
$var wire 1 d inst5|Add0~13 $end
$var wire 1 e inst5|Add0~14_combout $end
$var wire 1 f inst5|Add0~15 $end
$var wire 1 g inst5|Add0~16_combout $end
$var wire 1 h inst5|Add0~17 $end
$var wire 1 i inst5|Add0~18_combout $end
$var wire 1 j inst5|Add0~19 $end
$var wire 1 k inst5|Add0~20_combout $end
$var wire 1 l inst5|Add0~21 $end
$var wire 1 m inst5|Add0~22_combout $end
$var wire 1 n inst5|Add0~23 $end
$var wire 1 o inst5|Add0~24_combout $end
$var wire 1 p inst5|Add0~25 $end
$var wire 1 q inst5|Add0~26_combout $end
$var wire 1 r inst5|Add0~27 $end
$var wire 1 s inst5|Add0~28_combout $end
$var wire 1 t inst5|Add0~29 $end
$var wire 1 u inst5|Add0~30_combout $end
$var wire 1 v inst5|Add0~31 $end
$var wire 1 w inst5|Add0~32_combout $end
$var wire 1 x inst5|Add0~33 $end
$var wire 1 y inst5|Add0~34_combout $end
$var wire 1 z inst5|Add0~35 $end
$var wire 1 { inst5|Add0~36_combout $end
$var wire 1 | inst5|Add0~37 $end
$var wire 1 } inst5|Add0~38_combout $end
$var wire 1 ~ inst5|Add0~39 $end
$var wire 1 !! inst5|Add0~40_combout $end
$var wire 1 "! inst5|Add0~41 $end
$var wire 1 #! inst5|Add0~42_combout $end
$var wire 1 $! inst5|Add0~43 $end
$var wire 1 %! inst5|Add0~44_combout $end
$var wire 1 &! inst5|Add0~45 $end
$var wire 1 '! inst5|Add0~46_combout $end
$var wire 1 (! inst5|Add0~47 $end
$var wire 1 )! inst5|Add0~48_combout $end
$var wire 1 *! inst5|Add0~49 $end
$var wire 1 +! inst5|Add0~50_combout $end
$var wire 1 ,! inst5|Add0~51 $end
$var wire 1 -! inst5|Add0~52_combout $end
$var wire 1 .! inst5|Add0~53 $end
$var wire 1 /! inst5|Add0~54_combout $end
$var wire 1 0! inst5|Add0~55 $end
$var wire 1 1! inst5|Add0~56_combout $end
$var wire 1 2! inst5|Add0~57 $end
$var wire 1 3! inst5|Add0~58_combout $end
$var wire 1 4! inst5|Equal0~8_combout $end
$var wire 1 5! inst5|Add0~59 $end
$var wire 1 6! inst5|Add0~60_combout $end
$var wire 1 7! inst5|Equal0~9_combout $end
$var wire 1 8! inst5|clkout~0_combout $end
$var wire 1 9! inst5|clkout~feeder_combout $end
$var wire 1 :! inst5|clkout~q $end
$var wire 1 ;! inst5|clkout~clkctrl_outclk $end
$var wire 1 <! clr~input_o $end
$var wire 1 =! inst7|inst|q~0_combout $end
$var wire 1 >! inst7|inst|q~1_combout $end
$var wire 1 ?! inst7|inst|q~2_combout $end
$var wire 1 @! inst7|inst|Add0~0_combout $end
$var wire 1 A! inst7|inst|q~3_combout $end
$var wire 1 B! inst7|inst|Equal0~0_combout $end
$var wire 1 C! inst7|inst|cout~0_combout $end
$var wire 1 D! inst7|inst|cout~q $end
$var wire 1 E! inst7|inst|cout~clkctrl_outclk $end
$var wire 1 F! inst7|inst2|q~0_combout $end
$var wire 1 G! inst7|inst2|q~1_combout $end
$var wire 1 H! inst7|inst2|q~2_combout $end
$var wire 1 I! inst7|inst2|Add0~0_combout $end
$var wire 1 J! inst7|inst2|q~3_combout $end
$var wire 1 K! inst7|inst2|cout~0_combout $end
$var wire 1 L! inst7|inst2|cout~1_combout $end
$var wire 1 M! inst7|inst2|cout~q $end
$var wire 1 N! inst|WideOr0~0_combout $end
$var wire 1 O! inst|WideOr1~0_combout $end
$var wire 1 P! inst|WideOr2~0_combout $end
$var wire 1 Q! inst|WideOr3~0_combout $end
$var wire 1 R! inst|WideOr4~0_combout $end
$var wire 1 S! inst|WideOr5~0_combout $end
$var wire 1 T! inst|WideOr6~0_combout $end
$var wire 1 U! inst|WideOr7~0_combout $end
$var wire 1 V! inst4|WideOr0~0_combout $end
$var wire 1 W! inst4|WideOr1~0_combout $end
$var wire 1 X! inst4|WideOr2~0_combout $end
$var wire 1 Y! inst4|WideOr3~0_combout $end
$var wire 1 Z! inst4|WideOr4~0_combout $end
$var wire 1 [! inst4|WideOr5~0_combout $end
$var wire 1 \! inst4|WideOr6~0_combout $end
$var wire 1 ]! inst4|WideOr7~0_combout $end
$var wire 1 ^! inst7|inst2|q [3] $end
$var wire 1 _! inst7|inst2|q [2] $end
$var wire 1 `! inst7|inst2|q [1] $end
$var wire 1 a! inst7|inst2|q [0] $end
$var wire 1 b! inst7|inst|q [3] $end
$var wire 1 c! inst7|inst|q [2] $end
$var wire 1 d! inst7|inst|q [1] $end
$var wire 1 e! inst7|inst|q [0] $end
$var wire 1 f! inst5|count [30] $end
$var wire 1 g! inst5|count [29] $end
$var wire 1 h! inst5|count [28] $end
$var wire 1 i! inst5|count [27] $end
$var wire 1 j! inst5|count [26] $end
$var wire 1 k! inst5|count [25] $end
$var wire 1 l! inst5|count [24] $end
$var wire 1 m! inst5|count [23] $end
$var wire 1 n! inst5|count [22] $end
$var wire 1 o! inst5|count [21] $end
$var wire 1 p! inst5|count [20] $end
$var wire 1 q! inst5|count [19] $end
$var wire 1 r! inst5|count [18] $end
$var wire 1 s! inst5|count [17] $end
$var wire 1 t! inst5|count [16] $end
$var wire 1 u! inst5|count [15] $end
$var wire 1 v! inst5|count [14] $end
$var wire 1 w! inst5|count [13] $end
$var wire 1 x! inst5|count [12] $end
$var wire 1 y! inst5|count [11] $end
$var wire 1 z! inst5|count [10] $end
$var wire 1 {! inst5|count [9] $end
$var wire 1 |! inst5|count [8] $end
$var wire 1 }! inst5|count [7] $end
$var wire 1 ~! inst5|count [6] $end
$var wire 1 !" inst5|count [5] $end
$var wire 1 "" inst5|count [4] $end
$var wire 1 #" inst5|count [3] $end
$var wire 1 $" inst5|count [2] $end
$var wire 1 %" inst5|count [1] $end
$var wire 1 &" inst5|count [0] $end
$upscope $end
$upscope $end
$enddefinitions $end
#0
$dumpvars
0!
0"
0#
0+
0*
0)
0(
0'
0&
1%
1$
03
02
01
00
0/
0.
1-
1,
04
15
x6
17
18
19
0:
1;
1<
0=
0>
0?
0@
0A
0B
1C
1D
0E
0F
0G
0H
0I
0J
0K
0L
1M
1N
1O
1P
1Q
0R
0S
0T
1U
1V
1W
0X
1Y
0Z
0[
0\
0]
1^
0_
0`
0a
1b
0c
0d
0e
1f
0g
0h
0i
1j
0k
0l
0m
1n
0o
0p
0q
1r
0s
0t
0u
1v
0w
0x
0y
1z
0{
0|
0}
1~
0!!
0"!
0#!
1$!
0%!
0&!
0'!
1(!
0)!
0*!
0+!
1,!
0-!
0.!
0/!
10!
01!
02!
03!
14!
15!
06!
17!
08!
09!
0:!
0;!
0<!
1=!
0>!
0?!
0@!
0A!
0B!
0C!
0D!
0E!
1F!
0G!
0H!
0I!
0J!
0K!
0L!
0M!
0N!
0O!
0P!
0Q!
0R!
0S!
0T!
0U!
0V!
0W!
0X!
0Y!
0Z!
0[!
0\!
0]!
0a!
0`!
0_!
0^!
0e!
0d!
0c!
0b!
0&"
0%"
0$"
0#"
0""
0!"
0~!
0}!
0|!
0{!
0z!
0y!
0x!
0w!
0v!
0u!
0t!
0s!
0r!
0q!
0p!
0o!
0n!
0m!
0l!
0k!
0j!
0i!
0h!
0g!
0f!
$end
#5000
1!
1K
1L
1&"
1R
0M
1S
0Q
#10000
0!
0K
0L
#15000
1!
1K
1L
1%"
0&"
0Y
0R
1M
0S
1Z
1Y
1S
1Q
1[
0Z
0[
#20000
0!
0K
0L
#25000
1!
1K
1L
1&"
1R
0M
0Y
0S
0Q
1Z
1[
#30000
0!
0K
0L
#35000
1!
1K
1L
1$"
0%"
0&"
1\
0Z
1T
1Y
0R
1M
1S
0[
1X
0\
1Z
1]
0S
1Q
18!
0Q
0]
19!
#40000
0!
0K
0L
#45000
1!
1K
1L
1:!
0$"
1;!
08!
0Z
0T
0X
09!
18!
1Q
19!
1e!
1]!
1Z!
1Y!
1X!
1>!
0=!
1E
1F
1G
1J
13
10
1/
1.
#50000
0!
0K
0L
#55000
1!
1K
1L
1&"
1R
0M
1S
0Q
#60000
0!
0K
0L
#65000
1!
1K
1L
1%"
0&"
0Y
0R
1M
0S
1Z
1Y
1S
1Q
1[
0Z
0[
#70000
0!
0K
0L
#75000
1!
1K
1L
1&"
1R
0M
0Y
0S
0Q
1Z
1[
#80000
0!
0K
0L
#85000
1!
1K
1L
1$"
0%"
0&"
1\
0Z
1T
1Y
0R
1M
1S
0[
1X
0\
1Z
1]
0S
1Q
08!
0Q
0]
09!
#90000
0!
0K
0L
#95000
1!
1K
1L
0:!
0$"
0;!
18!
0Z
0T
0X
19!
08!
1Q
09!
#100000
0!
0K
0L
#105000
1!
1K
1L
1&"
1R
0M
1S
0Q
#110000
0!
0K
0L
#115000
1!
1K
1L
1%"
0&"
0Y
0R
1M
0S
1Z
1Y
1S
1Q
1[
0Z
0[
#120000
0!
0K
0L
#125000
1!
1K
1L
1&"
1R
0M
0Y
0S
0Q
1Z
1[
#130000
0!
0K
0L
#135000
1!
1K
1L
1$"
0%"
0&"
1\
0Z
1T
1Y
0R
1M
1S
0[
1X
0\
1Z
1]
0S
1Q
18!
0Q
0]
19!
#140000
0!
0K
0L
#145000
1!
1K
1L
1:!
0$"
1;!
08!
0Z
0T
0X
09!
18!
1Q
19!
1d!
0e!
1W!
0]!
1[!
0Z!
0Y!
1=!
0F
0G
1H
0J
0D
0-
03
11
00
0/
#150000
0!
0K
0L
#155000
1!
1K
1L
1&"
1R
0M
1S
0Q
#160000
0!
0K
0L
#165000
1!
1K
1L
1%"
0&"
0Y
0R
1M
0S
1Z
1Y
1S
1Q
1[
0Z
0[
#170000
0!
0K
0L
#175000
1!
1K
1L
1&"
1R
0M
0Y
0S
0Q
1Z
1[
#180000
0!
0K
0L
#185000
1!
1K
1L
1$"
0%"
0&"
1\
0Z
1T
1Y
0R
1M
1S
0[
1X
0\
1Z
1]
0S
1Q
08!
0Q
0]
09!
#190000
0!
0K
0L
#195000
1!
1K
1L
0:!
0$"
0;!
18!
0Z
0T
0X
19!
08!
1Q
09!
#200000
0!
0K
0L
#205000
1!
1K
1L
1&"
1R
0M
1S
0Q
#210000
0!
0K
0L
#215000
1!
1K
1L
1%"
0&"
0Y
0R
1M
0S
1Z
1Y
1S
1Q
1[
0Z
0[
#220000
0!
0K
0L
#225000
1!
1K
1L
1&"
1R
0M
0Y
0S
0Q
1Z
1[
#230000
0!
0K
0L
#235000
1!
1K
1L
1$"
0%"
0&"
1\
0Z
1T
1Y
0R
1M
1S
0[
1X
0\
1Z
1]
0S
1Q
18!
0Q
0]
19!
#240000
0!
0K
0L
#245000
1!
1K
1L
1:!
0$"
1;!
08!
0Z
0T
0X
09!
18!
1Q
19!
1e!
0[!
1Y!
1?!
0>!
0=!
1F
0H
01
1/
#250000
0!
0K
0L
#255000
1!
1K
1L
1&"
1R
0M
1S
0Q
#260000
0!
0K
0L
#265000
1!
1K
1L
1%"
0&"
0Y
0R
1M
0S
1Z
1Y
1S
1Q
1[
0Z
0[
#270000
0!
0K
0L
#275000
1!
1K
1L
1&"
1R
0M
0Y
0S
0Q
1Z
1[
#280000
0!
0K
0L
#285000
1!
1K
1L
1$"
0%"
0&"
1\
0Z
1T
1Y
0R
1M
1S
0[
1X
0\
1Z
1]
0S
1Q
08!
0Q
0]
09!
#290000
0!
0K
0L
#295000
1!
1K
1L
0:!
0$"
0;!
18!
0Z
0T
0X
19!
08!
1Q
09!
#300000
0!
0K
0L
#305000
1!
1K
1L
1&"
1R
0M
1S
0Q
#310000
0!
0K
0L
#315000
1!
1K
1L
1%"
0&"
0Y
0R
1M
0S
1Z
1Y
1S
1Q
1[
0Z
0[
#320000
0!
0K
0L
#325000
1!
1K
1L
1&"
1R
0M
0Y
0S
0Q
1Z
1[
#330000
0!
0K
0L
#335000
1!
1K
1L
1$"
0%"
0&"
1\
0Z
1T
1Y
0R
1M
1S
0[
1X
0\
1Z
1]
0S
1Q
18!
0Q
0]
19!
#340000
0!
0K
0L
#345000
1!
1K
1L
1:!
0$"
1;!
08!
0Z
0T
0X
09!
18!
1Q
19!
1c!
0d!
0e!
1]!
1Z!
0X!
1=!
0E
1G
1J
13
10
0.
#350000
0!
0K
0L
#355000
1!
1K
1L
1&"
1R
0M
1S
0Q
#360000
0!
0K
0L
#365000
1!
1K
1L
1%"
0&"
0Y
0R
1M
0S
1Z
1Y
1S
1Q
1[
0Z
0[
#370000
0!
0K
0L
#375000
1!
1K
1L
1&"
1R
0M
0Y
0S
0Q
1Z
1[
#380000
0!
0K
0L
#385000
1!
1K
1L
1$"
0%"
0&"
1\
0Z
1T
1Y
0R
1M
1S
0[
1X
0\
1Z
1]
0S
1Q
08!
0Q
0]
09!
#390000
0!
0K
0L
#395000
1!
1K
1L
0:!
0$"
0;!
18!
0Z
0T
0X
19!
08!
1Q
09!
#400000
0!
0K
0L
#405000
1!
1K
1L
1&"
1R
0M
1S
0Q
#410000
0!
0K
0L
#415000
1!
1K
1L
1%"
0&"
0Y
0R
1M
0S
1Z
1Y
1S
1Q
1[
0Z
0[
#420000
0!
0K
0L
#425000
1!
1K
1L
1&"
1R
0M
0Y
0S
0Q
1Z
1[
#430000
0!
0K
0L
#435000
1!
1K
1L
1$"
0%"
0&"
1\
0Z
1T
1Y
0R
1M
1S
0[
1X
0\
1Z
1]
0S
1Q
18!
0Q
0]
19!
#440000
0!
0K
0L
#445000
1!
1K
1L
1:!
0$"
1;!
08!
0Z
0T
0X
09!
18!
1Q
19!
1e!
0]!
1\!
0Z!
1>!
0=!
0G
1I
0J
03
12
00
#450000
0!
0K
0L
#455000
1!
1K
1L
1&"
1R
0M
1S
0Q
#460000
0!
0K
0L
#465000
1!
1K
1L
1%"
0&"
0Y
0R
1M
0S
1Z
1Y
1S
1Q
1[
0Z
0[
#470000
0!
0K
0L
#475000
1!
1K
1L
1&"
1R
0M
0Y
0S
0Q
1Z
1[
#480000
0!
0K
0L
#485000
1!
1K
1L
1$"
0%"
0&"
1\
0Z
1T
1Y
0R
1M
1S
0[
1X
0\
1Z
1]
0S
1Q
08!
0Q
0]
09!
#490000
0!
0K
0L
#495000
1!
1K
1L
0:!
0$"
0;!
18!
0Z
0T
0X
19!
08!
1Q
09!
#500000
0!
0K
0L
#505000
1!
1K
1L
1&"
1R
0M
1S
0Q
#510000
0!
0K
0L
#515000
1!
1K
1L
1%"
0&"
0Y
0R
1M
0S
1Z
1Y
1S
1Q
1[
0Z
0[
#520000
0!
0K
0L
#525000
1!
1K
1L
1&"
1R
0M
0Y
0S
0Q
1Z
1[
#530000
0!
0K
0L
#535000
1!
1K
1L
1$"
0%"
0&"
1\
0Z
1T
1Y
0R
1M
1S
0[
1X
0\
1Z
1]
0S
1Q
18!
0Q
0]
19!
#540000
0!
0K
0L
#545000
1!
1K
1L
1:!
0$"
1;!
08!
0Z
0T
0X
09!
18!
1Q
19!
1d!
0e!
0Y!
1=!
0F
0/
#550000
0!
0K
0L
#555000
1!
1K
1L
1&"
1R
0M
1S
0Q
#560000
0!
0K
0L
#565000
1!
1K
1L
1%"
0&"
0Y
0R
1M
0S
1Z
1Y
1S
1Q
1[
0Z
0[
#570000
0!
0K
0L
#575000
1!
1K
1L
1&"
1R
0M
0Y
0S
0Q
1Z
1[
#580000
0!
0K
0L
#585000
1!
1K
1L
1$"
0%"
0&"
1\
0Z
1T
1Y
0R
1M
1S
0[
1X
0\
1Z
1]
0S
1Q
08!
0Q
0]
09!
#590000
0!
0K
0L
#595000
1!
1K
1L
0:!
0$"
0;!
18!
0Z
0T
0X
19!
08!
1Q
09!
#600000
0!
0K
0L
#605000
1!
1K
1L
1&"
1R
0M
1S
0Q
#610000
0!
0K
0L
#615000
1!
1K
1L
1%"
0&"
0Y
0R
1M
0S
1Z
1Y
1S
1Q
1[
0Z
0[
#620000
0!
0K
0L
#625000
1!
1K
1L
1&"
1R
0M
0Y
0S
0Q
1Z
1[
#630000
0!
0K
0L
#635000
1!
1K
1L
1$"
0%"
0&"
1\
0Z
1T
1Y
0R
1M
1S
0[
1X
0\
1Z
1]
0S
1Q
18!
0Q
0]
19!
#640000
0!
0K
0L
#645000
1!
1K
1L
1:!
0$"
1;!
08!
0Z
0T
0X
09!
18!
1Q
19!
1e!
0W!
1@!
0\!
1Z!
1Y!
1X!
0?!
0>!
0=!
1E
1F
1G
0I
1D
1-
02
10
1/
1.
1A!
#650000
0!
0K
0L
#655000
1!
1K
1L
1&"
1R
0M
1S
0Q
#660000
0!
0K
0L
#665000
1!
1K
1L
1%"
0&"
0Y
0R
1M
0S
1Z
1Y
1S
1Q
1[
0Z
0[
#670000
0!
0K
0L
#675000
1!
1K
1L
1&"
1R
0M
0Y
0S
0Q
1Z
1[
#680000
0!
0K
0L
#685000
1!
1K
1L
1$"
0%"
0&"
1\
0Z
1T
1Y
0R
1M
1S
0[
1X
0\
1Z
1]
0S
1Q
08!
0Q
0]
09!
#690000
0!
0K
0L
#695000
1!
1K
1L
0:!
0$"
0;!
18!
0Z
0T
0X
19!
08!
1Q
09!
#700000
0!
0K
0L
#705000
1!
1K
1L
1&"
1R
0M
1S
0Q
#710000
0!
0K
0L
#715000
1!
1K
1L
1%"
0&"
0Y
0R
1M
0S
1Z
1Y
1S
1Q
1[
0Z
0[
#720000
0!
0K
0L
#725000
1!
1K
1L
1&"
1R
0M
0Y
0S
0Q
1Z
1[
#730000
0!
0K
0L
#735000
1!
1K
1L
1$"
0%"
0&"
1\
0Z
1T
1Y
0R
1M
1S
0[
1X
0\
1Z
1]
0S
1Q
18!
0Q
0]
19!
#740000
0!
0K
0L
#745000
1!
1K
1L
1:!
0$"
1;!
08!
0Z
0T
0X
09!
18!
1Q
19!
1b!
0c!
0d!
0e!
1W!
0Z!
0Y!
0X!
1=!
0E
0F
0G
0D
0-
00
0/
0.
#750000
0!
0K
0L
#755000
1!
1K
1L
1&"
1R
0M
1S
0Q
#760000
0!
0K
0L
#765000
1!
1K
1L
1%"
0&"
0Y
0R
1M
0S
1Z
1Y
1S
1Q
1[
0Z
0[
#770000
0!
0K
0L
#775000
1!
1K
1L
1&"
1R
0M
0Y
0S
0Q
1Z
1[
#780000
0!
0K
0L
#785000
1!
1K
1L
1$"
0%"
0&"
1\
0Z
1T
1Y
0R
1M
1S
0[
1X
0\
1Z
1]
0S
1Q
08!
0Q
0]
09!
#790000
0!
0K
0L
#795000
1!
1K
1L
0:!
0$"
0;!
18!
0Z
0T
0X
19!
08!
1Q
09!
#800000
0!
0K
0L
#805000
1!
1K
1L
1&"
1R
0M
1S
0Q
#810000
0!
0K
0L
#815000
1!
1K
1L
1%"
0&"
0Y
0R
1M
0S
1Z
1Y
1S
1Q
1[
0Z
0[
#820000
0!
0K
0L
#825000
1!
1K
1L
1&"
1R
0M
0Y
0S
0Q
1Z
1[
#830000
0!
0K
0L
#835000
1!
1K
1L
1$"
0%"
0&"
1\
0Z
1T
1Y
0R
1M
1S
0[
1X
0\
1Z
1]
0S
1Q
18!
0Q
0]
19!
#840000
0!
0K
0L
#845000
1!
1K
1L
1:!
0$"
1;!
08!
0Z
0T
0X
09!
18!
1Q
19!
1e!
1B!
1Y!
1>!
0=!
1F
1/
1C!
0A!
0>!
#850000
0!
0K
0L
#855000
1!
1K
1L
1&"
1R
0M
1S
0Q
#860000
0!
0K
0L
#865000
1!
1K
1L
1%"
0&"
0Y
0R
1M
0S
1Z
1Y
1S
1Q
1[
0Z
0[
#870000
0!
0K
0L
#875000
1!
1K
1L
1&"
1R
0M
0Y
0S
0Q
1Z
1[
#880000
0!
0K
0L
#885000
1!
1K
1L
1$"
0%"
0&"
1\
0Z
1T
1Y
0R
1M
1S
0[
1X
0\
1Z
1]
0S
1Q
08!
0Q
0]
09!
#890000
0!
0K
0L
#895000
1!
1K
1L
0:!
0$"
0;!
18!
0Z
0T
0X
19!
08!
1Q
09!
#900000
0!
0K
0L
#905000
1!
1K
1L
1&"
1R
0M
1S
0Q
#910000
0!
0K
0L
#915000
1!
1K
1L
1%"
0&"
0Y
0R
1M
0S
1Z
1Y
1S
1Q
1[
0Z
0[
#920000
0!
0K
0L
#925000
1!
1K
1L
1&"
1R
0M
0Y
0S
0Q
1Z
1[
#930000
0!
0K
0L
#935000
1!
1K
1L
1$"
0%"
0&"
1\
0Z
1T
1Y
0R
1M
1S
0[
1X
0\
1Z
1]
0S
1Q
18!
0Q
0]
19!
#940000
0!
0K
0L
#945000
1!
1K
1L
1:!
0$"
1;!
08!
0Z
0T
0X
09!
18!
1Q
19!
1D!
0b!
0e!
1E!
0W!
0B!
0@!
0Y!
1=!
0F
1D
1-
0/
0C!
1a!
1U!
1R!
1Q!
1P!
1G!
0F!
1=
1>
1?
1B
1+
1(
1'
1&
#950000
0!
0K
0L
#955000
1!
1K
1L
1&"
1R
0M
1S
0Q
#960000
0!
0K
0L
#965000
1!
1K
1L
1%"
0&"
0Y
0R
1M
0S
1Z
1Y
1S
1Q
1[
0Z
0[
#970000
0!
0K
0L
#975000
1!
1K
1L
1&"
1R
0M
0Y
0S
0Q
1Z
1[
#980000
0!
0K
0L
#985000
1!
1K
1L
1$"
0%"
0&"
1\
0Z
1T
1Y
0R
1M
1S
0[
1X
0\
1Z
1]
0S
1Q
08!
0Q
0]
09!
#990000
0!
0K
0L
#995000
1!
1K
1L
0:!
0$"
0;!
18!
0Z
0T
0X
19!
08!
1Q
09!
