decorder/fp/simulation/qsim/fp.msim.vcd
$comment
	File created using the following command:
		vcd file fp.msim.vcd -direction
$end
$date
	Thu May 31 21:22:19 2018
$end
$version
	ModelSim Version 10.5b
$end
$timescale
	1ps
$end

$scope module hh_vlg_vec_tst $end
$var reg 1 ! clkin $end
$var wire 1 " clkout $end

$scope module i1 $end
$var wire 1 # gnd $end
$var wire 1 $ vcc $end
$var wire 1 % unknown $end
$var tri1 1 & devclrn $end
$var tri1 1 ' devpor $end
$var tri1 1 ( devoe $end
$var wire 1 ) clkout~output_o $end
$var wire 1 * clkin~input_o $end
$var wire 1 + clkin~inputclkctrl_outclk $end
$var wire 1 , count[1]~1_combout $end
$var wire 1 - count[3]~3_combout $end
$var wire 1 . count~2_combout $end
$var wire 1 / count~0_combout $end
$var wire 1 0 clkout~0_combout $end
$var wire 1 1 clkout~1_combout $end
$var wire 1 2 clkout~reg0_q $end
$var wire 1 3 count [3] $end
$var wire 1 4 count [2] $end
$var wire 1 5 count [1] $end
$var wire 1 6 count [0] $end
$upscope $end
$upscope $end
$enddefinitions $end
#0
$dumpvars
0!
0"
0#
1$
x%
1&
1'
1(
0)
0*
0+
0,
0-
1.
0/
00
01
02
06
05
04
03
$end
#40000
1!
1*
1+
16
10
0.
1,
#60000
0!
0*
0+
#100000
1!
1*
1+
06
15
00
1.
#120000
0!
0*
0+
#160000
1!
1*
1+
16
10
1/
0.
0,
#180000
0!
0*
0+
#200000
1!
1*
1+
14
06
05
00
0/
11
#240000
0!
0*
0+
#260000
1!
1*
1+
04
12
1)
1"
1.
#280000
0!
0*
0+
#320000
1!
1*
1+
16
10
0.
1,
#340000
0!
0*
0+
#360000
1!
1*
1+
06
15
00
1.
#380000
0!
0*
0+
#420000
1!
1*
1+
16
10
1/
0.
0,
#440000
0!
0*
0+
#500000
1!
1*
1+
14
06
05
00
0/
01
#540000
0!
0*
0+
#580000
1!
1*
1+
04
02
0)
0"
1.
#600000
0!
0*
0+
#640000
1!
1*
1+
16
10
0.
1,
#660000
0!
0*
0+
#680000
1!
1*
1+
06
15
00
1.
#700000
0!
0*
0+
